<?xml version="1.0" encoding="UTF-8" standalone="no"?>
<!-- Created with Inkscape (http://www.inkscape.org/) -->

<svg
   width="64"
   height="64"
   viewBox="0 0 16.933333 16.933333"
   version="1.1"
   id="svg5"
   inkscape:version="1.2.2 (b0a8486541, 2022-12-01)"
   sodipodi:docname="cursor.svg"
   xmlns:inkscape="http://www.inkscape.org/namespaces/inkscape"
   xmlns:sodipodi="http://sodipodi.sourceforge.net/DTD/sodipodi-0.dtd"
   xmlns="http://www.w3.org/2000/svg"
   xmlns:svg="http://www.w3.org/2000/svg">
  <sodipodi:namedview
     id="namedview7"
     pagecolor="#ffffff"
     bordercolor="#000000"
     borderopacity="0.25"
     inkscape:showpageshadow="2"
     inkscape:pageopacity="0.0"
     inkscape:pagecheckerboard="0"
     inkscape:deskcolor="#d1d1d1"
     inkscape:document-units="mm"
     showgrid="false"
     inkscape:zoom="5.5731762"
     inkscape:cx="15.610488"
     inkscape:cy="27.094065"
     inkscape:window-width="1920"
     inkscape:window-height="1011"
     inkscape:window-x="0"
     inkscape:window-y="0"
     inkscape:window-maximized="1"
     inkscape:current-layer="layer1" />
  <defs
     id="defs2" />
  <g
     inkscape:label="Layer 1"
     inkscape:groupmode="layer"
     id="layer1">
    <circle
       style="fill:#ececec;stroke-width:0.264583"
       id="path321-5"
       cx="-9.3285723"
       cy="13.214698"
       r="1.9503741"
       transform="rotate(-57.946584)" />
    <path
       id="rect111"
       style="fill:#b3b3b3;stroke-width:0.264583"
       d="M 0,0 11.913103,10.37979 4.2471956,10.139035 0,16.933333 Z"
       sodipodi:nodetypes="ccccc" />
    <path
       id="rect111-3"
       style="fill:#ececec;stroke-width:0.264583"
       d="M -3.5e-7,2e-7 11.913103,10.37979 4.2471953,10.139035 Z"
       sodipodi:nodetypes="cccc" />
    <path
       id="path321"
       style="fill:#cccccc;stroke-width:0.264583"
       d="m 4.3378266,14.535416 c -0.1601471,0.795388 0.188847,1.606846 0.8763659,2.037669 0.9130846,0.571674 2.1167264,0.294805 2.6882574,-0.618369 0.1487911,-0.238436 0.2442936,-0.506213 0.2799659,-0.784993 -0.3578872,1.256165 -3.5492384,1.76361 -3.8445892,-0.634307 z"
       sodipodi:nodetypes="ccccc" />
  </g>
</svg>
